<svg width="721" height="437" viewBox="0 0 721 437" fill="none" xmlns="http://www.w3.org/2000/svg">
<rect width="721" height="437" fill="url(#paint0_linear)"/>
<defs>
<linearGradient id="paint0_linear" x1="360.5" y1="0" x2="360.5" y2="437" gradientUnits="userSpaceOnUse">
<stop stop-color="#A6E9E0"/>
<stop offset="0.0001" stop-color="#A6E9E0"/>
<stop offset="0.0260417" stop-color="#B6E6CC"/>
<stop offset="0.078125" stop-color="#E9DA8D"/>
<stop offset="0.489583" stop-color="#FFD166"/>
</linearGradient>
</defs>
</svg>
