<svg width="324" height="233" viewBox="0 0 324 233" fill="none" xmlns="http://www.w3.org/2000/svg">
<path d="M81 167L2 233H324V4L294 51L265.5 39.5C265.5 39.5 210.2 103 211 103H162L124.5 173.5L81 167Z" fill="#00AFB9" stroke="#00AFB9"/>
<path d="M305.59 40.8449L323.835 10.2185L324.574 10.671L305.59 40.8449Z" fill="#0081A7"/>
<path d="M224.99 111.091L165.704 109.603L165.686 111.492L224.99 111.091Z" fill="#0081A7"/>
<path d="M131.529 174.29L167.808 110.763L165.476 109.487L131.529 174.29Z" fill="#0081A7"/>
<path d="M17.6808 226.314L84.5706 173.501L82.6526 171.158L17.6808 226.314Z" fill="#0081A7"/>
<path d="M220.25 98.3459L266.815 43.6622L268.114 44.7952L220.25 98.3459Z" fill="#0081A7"/>
<path d="M220.25 98.3459L266.815 43.6622L268.114 44.7952L220.25 98.3459Z" stroke="#0081A7"/>
</svg>
