<svg width="322" height="115" viewBox="0 0 322 115" fill="none" xmlns="http://www.w3.org/2000/svg">
<path d="M1 1L321 1.00001L321 53.9903V114C306.621 114 290.5 102.5 257.5 80C233.744 63.8027 213.5 80 170.5 74.4936C139 65 139 54.9474 117.5 42.5C108 37 67 35.9571 50.5 28.5C34 21.0429 9.75667 3.63025 1 1Z" fill="#FAF3DD" stroke="#FAF3DD" stroke-linecap="round" stroke-linejoin="round"/>
</svg>
