<svg width="718" height="71" viewBox="0 0 718 71" fill="none" xmlns="http://www.w3.org/2000/svg">
<path d="M120.823 2.02691C108.661 -1.40765 96.0169 0.169059 83.4608 2.02692C76.459 3.06294 18.7947 29.3522 -1 47L-0.999989 71.5C292.116 71.287 291 71.5 468.5 71.5H718L523 62C473.254 59.5765 422.8 46.4675 373 34.5C308.5 19 291.302 49.4367 229 41.5C218.869 41.5 200 33.8256 183.5 25C162 13.5 141 7.72497 120.823 2.02691Z" fill="#FFA69E"/>
</svg>
