<svg width="350" height="71" viewBox="0 0 350 71" fill="none" xmlns="http://www.w3.org/2000/svg">
<g filter="url(#filter0_d)">
<rect x="2" width="344" height="63" rx="8" fill="#B8F0E8"/>
<rect x="3.5" y="1.5" width="341" height="60" rx="6.5" stroke="#A6E9E0" stroke-width="3"/>
</g>
<path d="M22.092 22.216C20.292 22.216 18.888 21.718 17.88 20.722C16.884 19.726 16.386 18.304 16.386 16.456V9.4H19.302V16.348C19.302 18.604 20.238 19.732 22.11 19.732C23.022 19.732 23.718 19.462 24.198 18.922C24.678 18.37 24.918 17.512 24.918 16.348V9.4H27.798V16.456C27.798 18.304 27.294 19.726 26.286 20.722C25.29 21.718 23.892 22.216 22.092 22.216ZM36.3675 12.172C37.5675 12.172 38.5335 12.532 39.2655 13.252C40.0095 13.972 40.3815 15.04 40.3815 16.456V22H37.5735V16.888C37.5735 16.12 37.4055 15.55 37.0695 15.178C36.7335 14.794 36.2475 14.602 35.6115 14.602C34.9035 14.602 34.3395 14.824 33.9195 15.268C33.4995 15.7 33.2895 16.348 33.2895 17.212V22H30.4815V12.316H33.1635V13.45C33.5355 13.042 33.9975 12.73 34.5495 12.514C35.1015 12.286 35.7075 12.172 36.3675 12.172ZM42.9269 12.316H45.7349V22H42.9269V12.316ZM44.3309 10.966C43.8149 10.966 43.3949 10.816 43.0709 10.516C42.7469 10.216 42.5849 9.844 42.5849 9.4C42.5849 8.956 42.7469 8.584 43.0709 8.284C43.3949 7.984 43.8149 7.834 44.3309 7.834C44.8469 7.834 45.2669 7.978 45.5909 8.266C45.9149 8.554 46.0769 8.914 46.0769 9.346C46.0769 9.814 45.9149 10.204 45.5909 10.516C45.2669 10.816 44.8469 10.966 44.3309 10.966ZM57.9529 12.316L53.8669 22H50.9689L46.9009 12.316H49.7989L52.4809 18.904L55.2529 12.316H57.9529ZM68.3211 17.194C68.3211 17.23 68.3031 17.482 68.2671 17.95H60.9411C61.0731 18.55 61.3851 19.024 61.8771 19.372C62.3691 19.72 62.9811 19.894 63.7131 19.894C64.2171 19.894 64.6611 19.822 65.0451 19.678C65.4411 19.522 65.8071 19.282 66.1431 18.958L67.6371 20.578C66.7251 21.622 65.3931 22.144 63.6411 22.144C62.5491 22.144 61.5831 21.934 60.7431 21.514C59.9031 21.082 59.2551 20.488 58.7991 19.732C58.3431 18.976 58.1151 18.118 58.1151 17.158C58.1151 16.21 58.3371 15.358 58.7811 14.602C59.2371 13.834 59.8551 13.24 60.6351 12.82C61.4271 12.388 62.3091 12.172 63.2811 12.172C64.2291 12.172 65.0871 12.376 65.8551 12.784C66.6231 13.192 67.2231 13.78 67.6551 14.548C68.0991 15.304 68.3211 16.186 68.3211 17.194ZM63.2991 14.296C62.6631 14.296 62.1291 14.476 61.6971 14.836C61.2651 15.196 61.0011 15.688 60.9051 16.312H65.6751C65.5791 15.7 65.3151 15.214 64.8831 14.854C64.4511 14.482 63.9231 14.296 63.2991 14.296ZM72.8725 13.594C73.2085 13.126 73.6585 12.772 74.2225 12.532C74.7985 12.292 75.4585 12.172 76.2025 12.172V14.764C75.8905 14.74 75.6805 14.728 75.5725 14.728C74.7685 14.728 74.1385 14.956 73.6825 15.412C73.2265 15.856 72.9985 16.528 72.9985 17.428V22H70.1905V12.316H72.8725V13.594ZM81.1653 22.144C80.3613 22.144 79.5753 22.048 78.8073 21.856C78.0393 21.652 77.4273 21.4 76.9713 21.1L77.9073 19.084C78.3393 19.36 78.8613 19.588 79.4733 19.768C80.0853 19.936 80.6853 20.02 81.2733 20.02C82.4613 20.02 83.0553 19.726 83.0553 19.138C83.0553 18.862 82.8933 18.664 82.5693 18.544C82.2453 18.424 81.7473 18.322 81.0753 18.238C80.2833 18.118 79.6293 17.98 79.1133 17.824C78.5973 17.668 78.1473 17.392 77.7633 16.996C77.3913 16.6 77.2053 16.036 77.2053 15.304C77.2053 14.692 77.3793 14.152 77.7273 13.684C78.0873 13.204 78.6033 12.832 79.2753 12.568C79.9593 12.304 80.7633 12.172 81.6873 12.172C82.3713 12.172 83.0493 12.25 83.7213 12.406C84.4053 12.55 84.9693 12.754 85.4133 13.018L84.4773 15.016C83.6253 14.536 82.6953 14.296 81.6873 14.296C81.0873 14.296 80.6373 14.38 80.3373 14.548C80.0373 14.716 79.8873 14.932 79.8873 15.196C79.8873 15.496 80.0493 15.706 80.3733 15.826C80.6973 15.946 81.2133 16.06 81.9213 16.168C82.7133 16.3 83.3613 16.444 83.8653 16.6C84.3693 16.744 84.8073 17.014 85.1793 17.41C85.5513 17.806 85.7373 18.358 85.7373 19.066C85.7373 19.666 85.5573 20.2 85.1973 20.668C84.8373 21.136 84.3093 21.502 83.6133 21.766C82.9293 22.018 82.1133 22.144 81.1653 22.144ZM87.4698 12.316H90.2778V22H87.4698V12.316ZM88.8738 10.966C88.3578 10.966 87.9378 10.816 87.6138 10.516C87.2898 10.216 87.1278 9.844 87.1278 9.4C87.1278 8.956 87.2898 8.584 87.6138 8.284C87.9378 7.984 88.3578 7.834 88.8738 7.834C89.3898 7.834 89.8098 7.978 90.1338 8.266C90.4578 8.554 90.6198 8.914 90.6198 9.346C90.6198 9.814 90.4578 10.204 90.1338 10.516C89.8098 10.816 89.3898 10.966 88.8738 10.966ZM99.1299 21.532C98.8539 21.736 98.5119 21.892 98.1039 22C97.7079 22.096 97.2879 22.144 96.8439 22.144C95.6919 22.144 94.7979 21.85 94.1619 21.262C93.5379 20.674 93.2259 19.81 93.2259 18.67V14.692H91.7319V12.532H93.2259V10.174H96.0339V12.532H98.4459V14.692H96.0339V18.634C96.0339 19.042 96.1359 19.36 96.3399 19.588C96.5559 19.804 96.8559 19.912 97.2399 19.912C97.6839 19.912 98.0619 19.792 98.3739 19.552L99.1299 21.532ZM104.612 12.172C106.112 12.172 107.264 12.532 108.068 13.252C108.872 13.96 109.274 15.034 109.274 16.474V22H106.646V20.794C106.118 21.694 105.134 22.144 103.694 22.144C102.95 22.144 102.302 22.018 101.75 21.766C101.21 21.514 100.796 21.166 100.508 20.722C100.22 20.278 100.076 19.774 100.076 19.21C100.076 18.31 100.412 17.602 101.084 17.086C101.768 16.57 102.818 16.312 104.234 16.312H106.466C106.466 15.7 106.28 15.232 105.908 14.908C105.536 14.572 104.978 14.404 104.234 14.404C103.718 14.404 103.208 14.488 102.704 14.656C102.212 14.812 101.792 15.028 101.444 15.304L100.436 13.342C100.964 12.97 101.594 12.682 102.326 12.478C103.07 12.274 103.832 12.172 104.612 12.172ZM104.396 20.254C104.876 20.254 105.302 20.146 105.674 19.93C106.046 19.702 106.31 19.372 106.466 18.94V17.95H104.54C103.388 17.95 102.812 18.328 102.812 19.084C102.812 19.444 102.95 19.732 103.226 19.948C103.514 20.152 103.904 20.254 104.396 20.254ZM115.074 22.144C114.27 22.144 113.484 22.048 112.716 21.856C111.948 21.652 111.336 21.4 110.88 21.1L111.816 19.084C112.248 19.36 112.77 19.588 113.382 19.768C113.994 19.936 114.594 20.02 115.182 20.02C116.37 20.02 116.964 19.726 116.964 19.138C116.964 18.862 116.802 18.664 116.478 18.544C116.154 18.424 115.656 18.322 114.984 18.238C114.192 18.118 113.538 17.98 113.022 17.824C112.506 17.668 112.056 17.392 111.672 16.996C111.3 16.6 111.114 16.036 111.114 15.304C111.114 14.692 111.288 14.152 111.636 13.684C111.996 13.204 112.512 12.832 113.184 12.568C113.868 12.304 114.672 12.172 115.596 12.172C116.28 12.172 116.958 12.25 117.63 12.406C118.314 12.55 118.878 12.754 119.322 13.018L118.386 15.016C117.534 14.536 116.604 14.296 115.596 14.296C114.996 14.296 114.546 14.38 114.246 14.548C113.946 14.716 113.796 14.932 113.796 15.196C113.796 15.496 113.958 15.706 114.282 15.826C114.606 15.946 115.122 16.06 115.83 16.168C116.622 16.3 117.27 16.444 117.774 16.6C118.278 16.744 118.716 17.014 119.088 17.41C119.46 17.806 119.646 18.358 119.646 19.066C119.646 19.666 119.466 20.2 119.106 20.668C118.746 21.136 118.218 21.502 117.522 21.766C116.838 22.018 116.022 22.144 115.074 22.144ZM126.674 9.4H129.59V22H126.674V9.4ZM138.268 12.172C139.468 12.172 140.434 12.532 141.166 13.252C141.91 13.972 142.282 15.04 142.282 16.456V22H139.474V16.888C139.474 16.12 139.306 15.55 138.97 15.178C138.634 14.794 138.148 14.602 137.512 14.602C136.804 14.602 136.24 14.824 135.82 15.268C135.4 15.7 135.19 16.348 135.19 17.212V22H132.382V12.316H135.064V13.45C135.436 13.042 135.898 12.73 136.45 12.514C137.002 12.286 137.608 12.172 138.268 12.172ZM154.797 8.644V22H152.115V20.884C151.419 21.724 150.411 22.144 149.091 22.144C148.179 22.144 147.351 21.94 146.607 21.532C145.875 21.124 145.299 20.542 144.879 19.786C144.459 19.03 144.249 18.154 144.249 17.158C144.249 16.162 144.459 15.286 144.879 14.53C145.299 13.774 145.875 13.192 146.607 12.784C147.351 12.376 148.179 12.172 149.091 12.172C150.327 12.172 151.293 12.562 151.989 13.342V8.644H154.797ZM149.577 19.84C150.285 19.84 150.873 19.6 151.341 19.12C151.809 18.628 152.043 17.974 152.043 17.158C152.043 16.342 151.809 15.694 151.341 15.214C150.873 14.722 150.285 14.476 149.577 14.476C148.857 14.476 148.263 14.722 147.795 15.214C147.327 15.694 147.093 16.342 147.093 17.158C147.093 17.974 147.327 18.628 147.795 19.12C148.263 19.6 148.857 19.84 149.577 19.84ZM162.004 22.144C160.984 22.144 160.066 21.934 159.25 21.514C158.446 21.082 157.816 20.488 157.36 19.732C156.904 18.976 156.676 18.118 156.676 17.158C156.676 16.198 156.904 15.34 157.36 14.584C157.816 13.828 158.446 13.24 159.25 12.82C160.066 12.388 160.984 12.172 162.004 12.172C163.024 12.172 163.936 12.388 164.74 12.82C165.544 13.24 166.174 13.828 166.63 14.584C167.086 15.34 167.314 16.198 167.314 17.158C167.314 18.118 167.086 18.976 166.63 19.732C166.174 20.488 165.544 21.082 164.74 21.514C163.936 21.934 163.024 22.144 162.004 22.144ZM162.004 19.84C162.724 19.84 163.312 19.6 163.768 19.12C164.236 18.628 164.47 17.974 164.47 17.158C164.47 16.342 164.236 15.694 163.768 15.214C163.312 14.722 162.724 14.476 162.004 14.476C161.284 14.476 160.69 14.722 160.222 15.214C159.754 15.694 159.52 16.342 159.52 17.158C159.52 17.974 159.754 18.628 160.222 19.12C160.69 19.6 161.284 19.84 162.004 19.84ZM175.077 12.172C176.277 12.172 177.243 12.532 177.975 13.252C178.719 13.972 179.091 15.04 179.091 16.456V22H176.283V16.888C176.283 16.12 176.115 15.55 175.779 15.178C175.443 14.794 174.957 14.602 174.321 14.602C173.613 14.602 173.049 14.824 172.629 15.268C172.209 15.7 171.999 16.348 171.999 17.212V22H169.191V12.316H171.873V13.45C172.245 13.042 172.707 12.73 173.259 12.514C173.811 12.286 174.417 12.172 175.077 12.172ZM191.227 17.194C191.227 17.23 191.209 17.482 191.173 17.95H183.847C183.979 18.55 184.291 19.024 184.783 19.372C185.275 19.72 185.887 19.894 186.619 19.894C187.123 19.894 187.567 19.822 187.951 19.678C188.347 19.522 188.713 19.282 189.049 18.958L190.543 20.578C189.631 21.622 188.299 22.144 186.547 22.144C185.455 22.144 184.489 21.934 183.649 21.514C182.809 21.082 182.161 20.488 181.705 19.732C181.249 18.976 181.021 18.118 181.021 17.158C181.021 16.21 181.243 15.358 181.687 14.602C182.143 13.834 182.761 13.24 183.541 12.82C184.333 12.388 185.215 12.172 186.187 12.172C187.135 12.172 187.993 12.376 188.761 12.784C189.529 13.192 190.129 13.78 190.561 14.548C191.005 15.304 191.227 16.186 191.227 17.194ZM186.205 14.296C185.569 14.296 185.035 14.476 184.603 14.836C184.171 15.196 183.907 15.688 183.811 16.312H188.581C188.485 15.7 188.221 15.214 187.789 14.854C187.357 14.482 186.829 14.296 186.205 14.296ZM196.355 22.144C195.551 22.144 194.765 22.048 193.997 21.856C193.229 21.652 192.617 21.4 192.161 21.1L193.097 19.084C193.529 19.36 194.051 19.588 194.663 19.768C195.275 19.936 195.875 20.02 196.463 20.02C197.651 20.02 198.245 19.726 198.245 19.138C198.245 18.862 198.083 18.664 197.759 18.544C197.435 18.424 196.937 18.322 196.265 18.238C195.473 18.118 194.819 17.98 194.303 17.824C193.787 17.668 193.337 17.392 192.953 16.996C192.581 16.6 192.395 16.036 192.395 15.304C192.395 14.692 192.569 14.152 192.917 13.684C193.277 13.204 193.793 12.832 194.465 12.568C195.149 12.304 195.953 12.172 196.877 12.172C197.561 12.172 198.239 12.25 198.911 12.406C199.595 12.55 200.159 12.754 200.603 13.018L199.667 15.016C198.815 14.536 197.885 14.296 196.877 14.296C196.277 14.296 195.827 14.38 195.527 14.548C195.227 14.716 195.077 14.932 195.077 15.196C195.077 15.496 195.239 15.706 195.563 15.826C195.887 15.946 196.403 16.06 197.111 16.168C197.903 16.3 198.551 16.444 199.055 16.6C199.559 16.744 199.997 17.014 200.369 17.41C200.741 17.806 200.927 18.358 200.927 19.066C200.927 19.666 200.747 20.2 200.387 20.668C200.027 21.136 199.499 21.502 198.803 21.766C198.119 22.018 197.303 22.144 196.355 22.144ZM202.659 12.316H205.467V22H202.659V12.316ZM204.063 10.966C203.547 10.966 203.127 10.816 202.803 10.516C202.479 10.216 202.317 9.844 202.317 9.4C202.317 8.956 202.479 8.584 202.803 8.284C203.127 7.984 203.547 7.834 204.063 7.834C204.579 7.834 204.999 7.978 205.323 8.266C205.647 8.554 205.809 8.914 205.809 9.346C205.809 9.814 205.647 10.204 205.323 10.516C204.999 10.816 204.579 10.966 204.063 10.966ZM211.979 12.172C213.479 12.172 214.631 12.532 215.435 13.252C216.239 13.96 216.641 15.034 216.641 16.474V22H214.013V20.794C213.485 21.694 212.501 22.144 211.061 22.144C210.317 22.144 209.669 22.018 209.117 21.766C208.577 21.514 208.163 21.166 207.875 20.722C207.587 20.278 207.443 19.774 207.443 19.21C207.443 18.31 207.779 17.602 208.451 17.086C209.135 16.57 210.185 16.312 211.601 16.312H213.833C213.833 15.7 213.647 15.232 213.275 14.908C212.903 14.572 212.345 14.404 211.601 14.404C211.085 14.404 210.575 14.488 210.071 14.656C209.579 14.812 209.159 15.028 208.811 15.304L207.803 13.342C208.331 12.97 208.961 12.682 209.693 12.478C210.437 12.274 211.199 12.172 211.979 12.172ZM211.763 20.254C212.243 20.254 212.669 20.146 213.041 19.93C213.413 19.702 213.677 19.372 213.833 18.94V17.95H211.907C210.755 17.95 210.179 18.328 210.179 19.084C210.179 19.444 210.317 19.732 210.593 19.948C210.881 20.152 211.271 20.254 211.763 20.254ZM25.318 39L25.304 32.504L22.084 37.88H21.272L18.052 32.588V39H16.316V29.2H17.814L21.706 35.696L25.528 29.2H27.026L27.04 39H25.318ZM32.3751 31.44C33.4764 31.44 34.3164 31.706 34.8951 32.238C35.4831 32.7607 35.7771 33.554 35.7771 34.618V39H34.1251V38.09C33.9104 38.4167 33.6024 38.6687 33.2011 38.846C32.8091 39.014 32.3331 39.098 31.7731 39.098C31.2131 39.098 30.7231 39.0047 30.3031 38.818C29.8831 38.622 29.5564 38.356 29.3231 38.02C29.0991 37.6747 28.9871 37.2873 28.9871 36.858C28.9871 36.186 29.2344 35.6493 29.7291 35.248C30.2331 34.8373 31.0218 34.632 32.0951 34.632H34.0271V34.52C34.0271 33.9973 33.8684 33.596 33.5511 33.316C33.2431 33.036 32.7811 32.896 32.1651 32.896C31.7451 32.896 31.3298 32.9613 30.9191 33.092C30.5178 33.2227 30.1771 33.4047 29.8971 33.638L29.2111 32.364C29.6031 32.0653 30.0744 31.8367 30.6251 31.678C31.1758 31.5193 31.7591 31.44 32.3751 31.44ZM32.1371 37.824C32.5758 37.824 32.9631 37.726 33.2991 37.53C33.6444 37.3247 33.8871 37.0353 34.0271 36.662V35.794H32.2211C31.2131 35.794 30.7091 36.1253 30.7091 36.788C30.7091 37.1053 30.8351 37.3573 31.0871 37.544C31.3391 37.7307 31.6891 37.824 32.1371 37.824ZM37.253 41.814C36.5157 41.814 35.9557 41.6693 35.573 41.38L36.077 40.078C36.3383 40.274 36.679 40.372 37.099 40.372C37.4257 40.372 37.673 40.2693 37.841 40.064C38.0183 39.868 38.107 39.574 38.107 39.182V31.524H39.857V39.14C39.857 39.9707 39.6283 40.624 39.171 41.1C38.7137 41.576 38.0743 41.814 37.253 41.814ZM38.975 30.292C38.6577 30.292 38.3917 30.194 38.177 29.998C37.9623 29.7927 37.855 29.5407 37.855 29.242C37.855 28.9433 37.9623 28.696 38.177 28.5C38.3917 28.2947 38.6577 28.192 38.975 28.192C39.2923 28.192 39.5583 28.29 39.773 28.486C39.9877 28.6727 40.095 28.9107 40.095 29.2C40.095 29.508 39.9877 29.7693 39.773 29.984C39.5677 30.1893 39.3017 30.292 38.975 30.292ZM45.5119 39.098C44.7559 39.098 44.0746 38.9347 43.4679 38.608C42.8612 38.2813 42.3852 37.8287 42.0399 37.25C41.7039 36.662 41.5359 35.9993 41.5359 35.262C41.5359 34.5247 41.7039 33.8667 42.0399 33.288C42.3852 32.7093 42.8612 32.2567 43.4679 31.93C44.0746 31.6033 44.7559 31.44 45.5119 31.44C46.2772 31.44 46.9632 31.6033 47.5699 31.93C48.1766 32.2567 48.6479 32.7093 48.9839 33.288C49.3292 33.8667 49.5019 34.5247 49.5019 35.262C49.5019 35.9993 49.3292 36.662 48.9839 37.25C48.6479 37.8287 48.1766 38.2813 47.5699 38.608C46.9632 38.9347 46.2772 39.098 45.5119 39.098ZM45.5119 37.6C46.1559 37.6 46.6879 37.3853 47.1079 36.956C47.5279 36.5267 47.7379 35.962 47.7379 35.262C47.7379 34.562 47.5279 33.9973 47.1079 33.568C46.6879 33.1387 46.1559 32.924 45.5119 32.924C44.8679 32.924 44.3359 33.1387 43.9159 33.568C43.5052 33.9973 43.2999 34.562 43.2999 35.262C43.2999 35.962 43.5052 36.5267 43.9159 36.956C44.3359 37.3853 44.8679 37.6 45.5119 37.6ZM52.8413 32.616C53.3453 31.832 54.232 31.44 55.5013 31.44V33.106C55.352 33.078 55.2167 33.064 55.0953 33.064C54.414 33.064 53.882 33.2647 53.4993 33.666C53.1167 34.058 52.9253 34.6273 52.9253 35.374V39H51.1753V31.524H52.8413V32.616ZM61.4834 33.764C61.1661 33.764 60.8954 33.6567 60.6714 33.442C60.4474 33.218 60.3354 32.938 60.3354 32.602C60.3354 32.2567 60.4427 31.9767 60.6574 31.762C60.8814 31.5473 61.1567 31.44 61.4834 31.44C61.8101 31.44 62.0807 31.5473 62.2954 31.762C62.5194 31.9767 62.6314 32.2567 62.6314 32.602C62.6314 32.938 62.5194 33.218 62.2954 33.442C62.0714 33.6567 61.8007 33.764 61.4834 33.764ZM61.4834 39.098C61.1661 39.098 60.8954 38.9907 60.6714 38.776C60.4474 38.552 60.3354 38.272 60.3354 37.936C60.3354 37.5907 60.4427 37.3107 60.6574 37.096C60.8814 36.8813 61.1567 36.774 61.4834 36.774C61.8101 36.774 62.0807 36.8813 62.2954 37.096C62.5194 37.3107 62.6314 37.5907 62.6314 37.936C62.6314 38.272 62.5194 38.552 62.2954 38.776C62.0714 38.9907 61.8007 39.098 61.4834 39.098ZM68.3785 29.2H70.1985V39H68.3785V29.2ZM76.9232 31.44C77.8659 31.44 78.6219 31.7153 79.1912 32.266C79.7605 32.8167 80.0452 33.6333 80.0452 34.716V39H78.2952V34.94C78.2952 34.2867 78.1412 33.7967 77.8332 33.47C77.5252 33.134 77.0865 32.966 76.5172 32.966C75.8732 32.966 75.3645 33.162 74.9912 33.554C74.6179 33.9367 74.4312 34.492 74.4312 35.22V39H72.6812V31.524H74.3472V32.49C74.6365 32.1447 75.0005 31.8833 75.4392 31.706C75.8779 31.5287 76.3725 31.44 76.9232 31.44ZM85.3032 29.928C84.5659 29.928 84.1972 30.3293 84.1972 31.132V31.58H86.2552V32.98H84.2532V39H82.5032V32.98H81.2712V31.58H82.5032V31.104C82.5032 30.3013 82.7365 29.6713 83.2032 29.214C83.6699 28.7473 84.3279 28.514 85.1772 28.514C85.8492 28.514 86.3765 28.6493 86.7592 28.92L86.2692 30.236C85.9705 30.0307 85.6485 29.928 85.3032 29.928ZM90.6838 39.098C89.9278 39.098 89.2464 38.9347 88.6398 38.608C88.0331 38.2813 87.5571 37.8287 87.2118 37.25C86.8758 36.662 86.7078 35.9993 86.7078 35.262C86.7078 34.5247 86.8758 33.8667 87.2118 33.288C87.5571 32.7093 88.0331 32.2567 88.6398 31.93C89.2464 31.6033 89.9278 31.44 90.6838 31.44C91.4491 31.44 92.1351 31.6033 92.7418 31.93C93.3484 32.2567 93.8198 32.7093 94.1558 33.288C94.5011 33.8667 94.6738 34.5247 94.6738 35.262C94.6738 35.9993 94.5011 36.662 94.1558 37.25C93.8198 37.8287 93.3484 38.2813 92.7418 38.608C92.1351 38.9347 91.4491 39.098 90.6838 39.098ZM90.6838 37.6C91.3278 37.6 91.8598 37.3853 92.2798 36.956C92.6998 36.5267 92.9098 35.962 92.9098 35.262C92.9098 34.562 92.6998 33.9973 92.2798 33.568C91.8598 33.1387 91.3278 32.924 90.6838 32.924C90.0398 32.924 89.5078 33.1387 89.0878 33.568C88.6771 33.9973 88.4718 34.562 88.4718 35.262C88.4718 35.962 88.6771 36.5267 89.0878 36.956C89.5078 37.3853 90.0398 37.6 90.6838 37.6ZM98.0132 32.616C98.5172 31.832 99.4039 31.44 100.673 31.44V33.106C100.524 33.078 100.389 33.064 100.267 33.064C99.5859 33.064 99.0539 33.2647 98.6712 33.666C98.2886 34.058 98.0972 34.6273 98.0972 35.374V39H96.3472V31.524H98.0132V32.616ZM111.594 31.44C112.536 31.44 113.283 31.7153 113.834 32.266C114.384 32.8073 114.66 33.624 114.66 34.716V39H112.91V34.94C112.91 34.2867 112.765 33.7967 112.476 33.47C112.186 33.134 111.771 32.966 111.23 32.966C110.642 32.966 110.17 33.162 109.816 33.554C109.461 33.9367 109.284 34.4873 109.284 35.206V39H107.534V34.94C107.534 34.2867 107.389 33.7967 107.1 33.47C106.81 33.134 106.395 32.966 105.854 32.966C105.256 32.966 104.78 33.1573 104.426 33.54C104.08 33.9227 103.908 34.478 103.908 35.206V39H102.158V31.524H103.824V32.476C104.104 32.14 104.454 31.8833 104.874 31.706C105.294 31.5287 105.76 31.44 106.274 31.44C106.834 31.44 107.328 31.5473 107.758 31.762C108.196 31.9673 108.542 32.2753 108.794 32.686C109.102 32.294 109.498 31.9907 109.984 31.776C110.469 31.552 111.006 31.44 111.594 31.44ZM119.752 31.44C120.853 31.44 121.693 31.706 122.272 32.238C122.86 32.7607 123.154 33.554 123.154 34.618V39H121.502V38.09C121.287 38.4167 120.979 38.6687 120.578 38.846C120.186 39.014 119.71 39.098 119.15 39.098C118.59 39.098 118.1 39.0047 117.68 38.818C117.26 38.622 116.933 38.356 116.7 38.02C116.476 37.6747 116.364 37.2873 116.364 36.858C116.364 36.186 116.611 35.6493 117.106 35.248C117.61 34.8373 118.399 34.632 119.472 34.632H121.404V34.52C121.404 33.9973 121.245 33.596 120.928 33.316C120.62 33.036 120.158 32.896 119.542 32.896C119.122 32.896 118.707 32.9613 118.296 33.092C117.895 33.2227 117.554 33.4047 117.274 33.638L116.588 32.364C116.98 32.0653 117.451 31.8367 118.002 31.678C118.553 31.5193 119.136 31.44 119.752 31.44ZM119.514 37.824C119.953 37.824 120.34 37.726 120.676 37.53C121.021 37.3247 121.264 37.0353 121.404 36.662V35.794H119.598C118.59 35.794 118.086 36.1253 118.086 36.788C118.086 37.1053 118.212 37.3573 118.464 37.544C118.716 37.7307 119.066 37.824 119.514 37.824ZM129.894 38.594C129.689 38.762 129.437 38.888 129.138 38.972C128.849 39.056 128.541 39.098 128.214 39.098C127.393 39.098 126.758 38.8833 126.31 38.454C125.862 38.0247 125.638 37.3993 125.638 36.578V32.98H124.406V31.58H125.638V29.872H127.388V31.58H129.39V32.98H127.388V36.536C127.388 36.9 127.477 37.18 127.654 37.376C127.831 37.5627 128.088 37.656 128.424 37.656C128.816 37.656 129.143 37.5533 129.404 37.348L129.894 38.594ZM131.334 31.524H133.084V39H131.334V31.524ZM132.216 30.292C131.898 30.292 131.632 30.194 131.418 29.998C131.203 29.7927 131.096 29.5407 131.096 29.242C131.096 28.9433 131.203 28.696 131.418 28.5C131.632 28.2947 131.898 28.192 132.216 28.192C132.533 28.192 132.799 28.29 133.014 28.486C133.228 28.6727 133.336 28.9107 133.336 29.2C133.336 29.508 133.228 29.7693 133.014 29.984C132.808 30.1893 132.542 30.292 132.216 30.292ZM138.74 39.098C137.984 39.098 137.303 38.9347 136.696 38.608C136.09 38.2813 135.614 37.8287 135.268 37.25C134.932 36.662 134.764 35.9993 134.764 35.262C134.764 34.5247 134.932 33.8667 135.268 33.288C135.614 32.7093 136.09 32.2567 136.696 31.93C137.303 31.6033 137.984 31.44 138.74 31.44C139.506 31.44 140.192 31.6033 140.798 31.93C141.405 32.2567 141.876 32.7093 142.212 33.288C142.558 33.8667 142.73 34.5247 142.73 35.262C142.73 35.9993 142.558 36.662 142.212 37.25C141.876 37.8287 141.405 38.2813 140.798 38.608C140.192 38.9347 139.506 39.098 138.74 39.098ZM138.74 37.6C139.384 37.6 139.916 37.3853 140.336 36.956C140.756 36.5267 140.966 35.962 140.966 35.262C140.966 34.562 140.756 33.9973 140.336 33.568C139.916 33.1387 139.384 32.924 138.74 32.924C138.096 32.924 137.564 33.1387 137.144 33.568C136.734 33.9973 136.528 34.562 136.528 35.262C136.528 35.962 136.734 36.5267 137.144 36.956C137.564 37.3853 138.096 37.6 138.74 37.6ZM148.646 31.44C149.589 31.44 150.345 31.7153 150.914 32.266C151.483 32.8167 151.768 33.6333 151.768 34.716V39H150.018V34.94C150.018 34.2867 149.864 33.7967 149.556 33.47C149.248 33.134 148.809 32.966 148.24 32.966C147.596 32.966 147.087 33.162 146.714 33.554C146.341 33.9367 146.154 34.492 146.154 35.22V39H144.404V31.524H146.07V32.49C146.359 32.1447 146.723 31.8833 147.162 31.706C147.601 31.5287 148.095 31.44 148.646 31.44ZM161.063 39.14C160.307 39.14 159.574 39.0327 158.865 38.818C158.165 38.6033 157.61 38.3187 157.199 37.964L157.829 36.55C158.23 36.8673 158.72 37.1287 159.299 37.334C159.887 37.53 160.475 37.628 161.063 37.628C161.791 37.628 162.332 37.5113 162.687 37.278C163.051 37.0447 163.233 36.7367 163.233 36.354C163.233 36.074 163.13 35.8453 162.925 35.668C162.729 35.4813 162.477 35.3367 162.169 35.234C161.861 35.1313 161.441 35.0147 160.909 34.884C160.162 34.7067 159.556 34.5293 159.089 34.352C158.632 34.1747 158.235 33.8993 157.899 33.526C157.572 33.1433 157.409 32.63 157.409 31.986C157.409 31.4447 157.554 30.9547 157.843 30.516C158.142 30.068 158.585 29.7133 159.173 29.452C159.77 29.1907 160.498 29.06 161.357 29.06C161.954 29.06 162.542 29.1347 163.121 29.284C163.7 29.4333 164.199 29.648 164.619 29.928L164.045 31.342C163.616 31.09 163.168 30.8987 162.701 30.768C162.234 30.6373 161.782 30.572 161.343 30.572C160.624 30.572 160.088 30.6933 159.733 30.936C159.388 31.1787 159.215 31.5007 159.215 31.902C159.215 32.182 159.313 32.4107 159.509 32.588C159.714 32.7653 159.971 32.9053 160.279 33.008C160.587 33.1107 161.007 33.2273 161.539 33.358C162.267 33.526 162.864 33.7033 163.331 33.89C163.798 34.0673 164.194 34.3427 164.521 34.716C164.857 35.0893 165.025 35.5933 165.025 36.228C165.025 36.7693 164.876 37.2593 164.577 37.698C164.288 38.1367 163.844 38.4867 163.247 38.748C162.65 39.0093 161.922 39.14 161.063 39.14ZM173.525 31.524L170.025 39.602C169.698 40.414 169.302 40.9833 168.835 41.31C168.368 41.646 167.804 41.814 167.141 41.814C166.768 41.814 166.399 41.7533 166.035 41.632C165.671 41.5107 165.372 41.3427 165.139 41.128L165.839 39.84C166.007 39.9987 166.203 40.1247 166.427 40.218C166.66 40.3113 166.894 40.358 167.127 40.358C167.435 40.358 167.687 40.2787 167.883 40.12C168.088 39.9613 168.275 39.6953 168.443 39.322L168.569 39.028L165.307 31.524H167.127L169.479 37.054L171.845 31.524H173.525ZM176.833 39.098C176.226 39.098 175.634 39.0187 175.055 38.86C174.476 38.7013 174.014 38.5007 173.669 38.258L174.341 36.928C174.677 37.152 175.078 37.334 175.545 37.474C176.021 37.6047 176.488 37.67 176.945 37.67C177.99 37.67 178.513 37.3947 178.513 36.844C178.513 36.5827 178.378 36.4007 178.107 36.298C177.846 36.1953 177.421 36.0973 176.833 36.004C176.217 35.9107 175.713 35.8033 175.321 35.682C174.938 35.5607 174.602 35.3507 174.313 35.052C174.033 34.744 173.893 34.3193 173.893 33.778C173.893 33.0687 174.187 32.504 174.775 32.084C175.372 31.6547 176.175 31.44 177.183 31.44C177.696 31.44 178.21 31.5007 178.723 31.622C179.236 31.734 179.656 31.888 179.983 32.084L179.311 33.414C178.676 33.0407 177.962 32.854 177.169 32.854C176.656 32.854 176.264 32.9333 175.993 33.092C175.732 33.2413 175.601 33.442 175.601 33.694C175.601 33.974 175.741 34.1747 176.021 34.296C176.31 34.408 176.754 34.5153 177.351 34.618C177.948 34.7113 178.438 34.8187 178.821 34.94C179.204 35.0613 179.53 35.2667 179.801 35.556C180.081 35.8453 180.221 36.256 180.221 36.788C180.221 37.488 179.918 38.048 179.311 38.468C178.704 38.888 177.878 39.098 176.833 39.098ZM186.222 38.594C186.017 38.762 185.765 38.888 185.466 38.972C185.177 39.056 184.869 39.098 184.542 39.098C183.721 39.098 183.086 38.8833 182.638 38.454C182.19 38.0247 181.966 37.3993 181.966 36.578V32.98H180.734V31.58H181.966V29.872H183.716V31.58H185.718V32.98H183.716V36.536C183.716 36.9 183.805 37.18 183.982 37.376C184.159 37.5627 184.416 37.656 184.752 37.656C185.144 37.656 185.471 37.5533 185.732 37.348L186.222 38.594ZM194.444 35.304C194.444 35.4253 194.434 35.598 194.416 35.822H188.55C188.652 36.3727 188.918 36.8113 189.348 37.138C189.786 37.4553 190.328 37.614 190.972 37.614C191.793 37.614 192.47 37.3433 193.002 36.802L193.94 37.88C193.604 38.2813 193.179 38.5847 192.666 38.79C192.152 38.9953 191.574 39.098 190.93 39.098C190.108 39.098 189.385 38.9347 188.76 38.608C188.134 38.2813 187.649 37.8287 187.304 37.25C186.968 36.662 186.8 35.9993 186.8 35.262C186.8 34.534 186.963 33.8807 187.29 33.302C187.626 32.714 188.088 32.2567 188.676 31.93C189.264 31.6033 189.926 31.44 190.664 31.44C191.392 31.44 192.04 31.6033 192.61 31.93C193.188 32.2473 193.636 32.7 193.954 33.288C194.28 33.8667 194.444 34.5387 194.444 35.304ZM190.664 32.84C190.104 32.84 189.628 33.008 189.236 33.344C188.853 33.6707 188.62 34.1093 188.536 34.66H192.778C192.703 34.1187 192.474 33.68 192.092 33.344C191.709 33.008 191.233 32.84 190.664 32.84ZM205.561 31.44C206.503 31.44 207.25 31.7153 207.801 32.266C208.351 32.8073 208.627 33.624 208.627 34.716V39H206.877V34.94C206.877 34.2867 206.732 33.7967 206.443 33.47C206.153 33.134 205.738 32.966 205.197 32.966C204.609 32.966 204.137 33.162 203.783 33.554C203.428 33.9367 203.251 34.4873 203.251 35.206V39H201.501V34.94C201.501 34.2867 201.356 33.7967 201.067 33.47C200.777 33.134 200.362 32.966 199.821 32.966C199.223 32.966 198.747 33.1573 198.393 33.54C198.047 33.9227 197.875 34.478 197.875 35.206V39H196.125V31.524H197.791V32.476C198.071 32.14 198.421 31.8833 198.841 31.706C199.261 31.5287 199.727 31.44 200.241 31.44C200.801 31.44 201.295 31.5473 201.725 31.762C202.163 31.9673 202.509 32.2753 202.761 32.686C203.069 32.294 203.465 31.9907 203.951 31.776C204.436 31.552 204.973 31.44 205.561 31.44ZM21.612 52.68V54H15.42V52.956L18.756 49.788C19.132 49.428 19.384 49.116 19.512 48.852C19.648 48.58 19.716 48.312 19.716 48.048C19.716 47.656 19.584 47.356 19.32 47.148C19.056 46.94 18.668 46.836 18.156 46.836C17.3 46.836 16.644 47.128 16.188 47.712L15.096 46.872C15.424 46.432 15.864 46.092 16.416 45.852C16.976 45.604 17.6 45.48 18.288 45.48C19.2 45.48 19.928 45.696 20.472 46.128C21.016 46.56 21.288 47.148 21.288 47.892C21.288 48.348 21.192 48.776 21 49.176C20.808 49.576 20.44 50.032 19.896 50.544L17.652 52.68H21.612ZM25.9812 54.12C25.3092 54.12 24.7092 53.952 24.1812 53.616C23.6532 53.272 23.2372 52.776 22.9332 52.128C22.6292 51.472 22.4772 50.696 22.4772 49.8C22.4772 48.904 22.6292 48.132 22.9332 47.484C23.2372 46.828 23.6532 46.332 24.1812 45.996C24.7092 45.652 25.3092 45.48 25.9812 45.48C26.6532 45.48 27.2532 45.652 27.7812 45.996C28.3172 46.332 28.7372 46.828 29.0412 47.484C29.3452 48.132 29.4972 48.904 29.4972 49.8C29.4972 50.696 29.3452 51.472 29.0412 52.128C28.7372 52.776 28.3172 53.272 27.7812 53.616C27.2532 53.952 26.6532 54.12 25.9812 54.12ZM25.9812 52.764C26.5812 52.764 27.0532 52.516 27.3972 52.02C27.7492 51.524 27.9252 50.784 27.9252 49.8C27.9252 48.816 27.7492 48.076 27.3972 47.58C27.0532 47.084 26.5812 46.836 25.9812 46.836C25.3892 46.836 24.9172 47.084 24.5652 47.58C24.2212 48.076 24.0492 48.816 24.0492 49.8C24.0492 50.784 24.2212 51.524 24.5652 52.02C24.9172 52.516 25.3892 52.764 25.9812 52.764ZM33.3968 45.6V54H31.8368V46.908H30.0608V45.6H33.3968ZM37.8952 45.48C39.0472 45.48 39.9392 45.84 40.5712 46.56C41.2112 47.28 41.5312 48.312 41.5312 49.656C41.5312 50.6 41.3592 51.408 41.0152 52.08C40.6712 52.744 40.1872 53.252 39.5632 53.604C38.9472 53.948 38.2312 54.12 37.4152 54.12C36.9832 54.12 36.5752 54.076 36.1912 53.988C35.8152 53.892 35.4872 53.756 35.2072 53.58L35.7832 52.404C36.1992 52.676 36.7312 52.812 37.3792 52.812C38.1872 52.812 38.8192 52.564 39.2752 52.068C39.7312 51.572 39.9592 50.856 39.9592 49.92V49.908C39.7112 50.196 39.3952 50.416 39.0112 50.568C38.6272 50.712 38.1952 50.784 37.7152 50.784C37.1632 50.784 36.6672 50.68 36.2272 50.472C35.7872 50.256 35.4432 49.952 35.1952 49.56C34.9472 49.168 34.8232 48.716 34.8232 48.204C34.8232 47.66 34.9592 47.184 35.2312 46.776C35.5032 46.36 35.8712 46.04 36.3352 45.816C36.7992 45.592 37.3192 45.48 37.8952 45.48ZM38.0152 49.56C38.5192 49.56 38.9272 49.424 39.2392 49.152C39.5592 48.88 39.7192 48.536 39.7192 48.12C39.7192 47.712 39.5632 47.376 39.2512 47.112C38.9472 46.84 38.5232 46.704 37.9792 46.704C37.4912 46.704 37.0952 46.836 36.7912 47.1C36.4872 47.356 36.3352 47.7 36.3352 48.132C36.3352 48.572 36.4872 48.92 36.7912 49.176C37.0952 49.432 37.5032 49.56 38.0152 49.56ZM46.035 50.04H49.335V51.288H46.035V50.04ZM59.9206 52.68V54H53.7286V52.956L57.0646 49.788C57.4406 49.428 57.6926 49.116 57.8206 48.852C57.9566 48.58 58.0246 48.312 58.0246 48.048C58.0246 47.656 57.8926 47.356 57.6286 47.148C57.3646 46.94 56.9766 46.836 56.4646 46.836C55.6086 46.836 54.9526 47.128 54.4966 47.712L53.4046 46.872C53.7326 46.432 54.1726 46.092 54.7246 45.852C55.2846 45.604 55.9086 45.48 56.5966 45.48C57.5086 45.48 58.2366 45.696 58.7806 46.128C59.3246 46.56 59.5966 47.148 59.5966 47.892C59.5966 48.348 59.5006 48.776 59.3086 49.176C59.1166 49.576 58.7486 50.032 58.2046 50.544L55.9606 52.68H59.9206ZM64.2898 54.12C63.6178 54.12 63.0178 53.952 62.4898 53.616C61.9618 53.272 61.5458 52.776 61.2418 52.128C60.9378 51.472 60.7858 50.696 60.7858 49.8C60.7858 48.904 60.9378 48.132 61.2418 47.484C61.5458 46.828 61.9618 46.332 62.4898 45.996C63.0178 45.652 63.6178 45.48 64.2898 45.48C64.9618 45.48 65.5618 45.652 66.0898 45.996C66.6258 46.332 67.0458 46.828 67.3498 47.484C67.6538 48.132 67.8058 48.904 67.8058 49.8C67.8058 50.696 67.6538 51.472 67.3498 52.128C67.0458 52.776 66.6258 53.272 66.0898 53.616C65.5618 53.952 64.9618 54.12 64.2898 54.12ZM64.2898 52.764C64.8898 52.764 65.3618 52.516 65.7058 52.02C66.0578 51.524 66.2338 50.784 66.2338 49.8C66.2338 48.816 66.0578 48.076 65.7058 47.58C65.3618 47.084 64.8898 46.836 64.2898 46.836C63.6978 46.836 63.2258 47.084 62.8738 47.58C62.5298 48.076 62.3578 48.816 62.3578 49.8C62.3578 50.784 62.5298 51.524 62.8738 52.02C63.2258 52.516 63.6978 52.764 64.2898 52.764ZM74.8854 52.68V54H68.6934V52.956L72.0294 49.788C72.4054 49.428 72.6574 49.116 72.7854 48.852C72.9214 48.58 72.9894 48.312 72.9894 48.048C72.9894 47.656 72.8574 47.356 72.5934 47.148C72.3294 46.94 71.9414 46.836 71.4294 46.836C70.5734 46.836 69.9174 47.128 69.4614 47.712L68.3694 46.872C68.6974 46.432 69.1374 46.092 69.6894 45.852C70.2494 45.604 70.8734 45.48 71.5614 45.48C72.4734 45.48 73.2014 45.696 73.7454 46.128C74.2894 46.56 74.5614 47.148 74.5614 47.892C74.5614 48.348 74.4654 48.776 74.2734 49.176C74.0814 49.576 73.7134 50.032 73.1694 50.544L70.9254 52.68H74.8854ZM79.3618 49.068C80.1378 49.164 80.7298 49.428 81.1378 49.86C81.5458 50.292 81.7498 50.832 81.7498 51.48C81.7498 51.968 81.6258 52.412 81.3778 52.812C81.1298 53.212 80.7538 53.532 80.2498 53.772C79.7538 54.004 79.1458 54.12 78.4258 54.12C77.8258 54.12 77.2458 54.036 76.6858 53.868C76.1338 53.692 75.6618 53.452 75.2698 53.148L75.9418 51.936C76.2458 52.192 76.6138 52.396 77.0458 52.548C77.4858 52.692 77.9378 52.764 78.4018 52.764C78.9538 52.764 79.3858 52.652 79.6978 52.428C80.0178 52.196 80.1778 51.884 80.1778 51.492C80.1778 51.1 80.0258 50.796 79.7218 50.58C79.4258 50.356 78.9698 50.244 78.3538 50.244H77.5858V49.176L79.4938 46.908H75.6778V45.6H81.4018V46.644L79.3618 49.068Z" fill="#5BABA1"/>
<defs>
<filter id="filter0_d" x="-2" y="0" width="352" height="71" filterUnits="userSpaceOnUse" color-interpolation-filters="sRGB">
<feFlood flood-opacity="0" result="BackgroundImageFix"/>
<feColorMatrix in="SourceAlpha" type="matrix" values="0 0 0 0 0 0 0 0 0 0 0 0 0 0 0 0 0 0 127 0"/>
<feOffset dy="4"/>
<feGaussianBlur stdDeviation="2"/>
<feColorMatrix type="matrix" values="0 0 0 0 0 0 0 0 0 0 0 0 0 0 0 0 0 0 0.25 0"/>
<feBlend mode="normal" in2="BackgroundImageFix" result="effect1_dropShadow"/>
<feBlend mode="normal" in="SourceGraphic" in2="effect1_dropShadow" result="shape"/>
</filter>
</defs>
</svg>
