<?xml version="1.0" encoding="UTF-8"?>
<svg xmlns="http://www.w3.org/2000/svg" xmlns:xlink="http://www.w3.org/1999/xlink" width="30pt" height="30pt" viewBox="0 0 30 30" version="1.1">
<g id="surface5619353">
<path style=" stroke:none;fill-rule:nonzero;fill:rgb(100%,100%,100%);fill-opacity:1;" d="M 6 4 C 4.894531 4 4 4.894531 4 6 L 4 24 C 4 25.105469 4.894531 26 6 26 L 24 26 C 25.105469 26 26 25.105469 26 24 L 26 6 C 26 4.894531 25.105469 4 24 4 Z M 15.003906 7.664062 C 19.722656 7.664062 23.558594 10.78125 23.558594 14.609375 C 23.558594 16.140625 22.964844 17.523438 21.722656 18.882812 C 19.929688 20.949219 15.917969 23.464844 15.003906 23.847656 C 14.09375 24.234375 14.226562 23.605469 14.261719 23.386719 C 14.285156 23.261719 14.382812 22.65625 14.382812 22.65625 C 14.414062 22.4375 14.441406 22.101562 14.355469 21.882812 C 14.257812 21.644531 13.878906 21.519531 13.601562 21.460938 C 9.488281 20.917969 6.445312 18.042969 6.445312 14.609375 C 6.445312 10.78125 10.285156 7.664062 15.003906 7.664062 Z M 12.625 12.910156 C 12.375 12.910156 12.171875 13.109375 12.171875 13.347656 L 12.171875 16.652344 C 12.171875 16.894531 12.375 17.089844 12.625 17.089844 C 12.878906 17.089844 13.082031 16.894531 13.082031 16.652344 L 13.082031 13.347656 C 13.082031 13.109375 12.878906 12.910156 12.625 12.910156 Z M 14.5625 12.910156 C 14.515625 12.910156 14.472656 12.914062 14.425781 12.933594 C 14.25 12.992188 14.128906 13.15625 14.128906 13.347656 L 14.128906 16.652344 C 14.128906 16.890625 14.324219 17.089844 14.5625 17.089844 C 14.800781 17.089844 14.996094 16.890625 14.996094 16.652344 L 14.996094 14.605469 L 16.679688 16.914062 C 16.761719 17.023438 16.890625 17.089844 17.027344 17.089844 C 17.074219 17.089844 17.117188 17.082031 17.164062 17.066406 C 17.339844 17.007812 17.460938 16.839844 17.460938 16.652344 L 17.457031 16.652344 L 17.457031 13.347656 C 17.457031 13.109375 17.261719 12.910156 17.027344 12.910156 C 16.789062 12.910156 16.59375 13.109375 16.59375 13.347656 L 16.59375 15.390625 L 14.910156 13.085938 C 14.828125 12.976562 14.699219 12.910156 14.5625 12.910156 Z M 18.929688 12.910156 C 18.679688 12.910156 18.472656 13.109375 18.472656 13.347656 L 18.472656 16.652344 C 18.472656 16.890625 18.679688 17.089844 18.929688 17.089844 L 20.65625 17.089844 C 20.90625 17.089844 21.109375 16.890625 21.109375 16.652344 C 21.109375 16.414062 20.90625 16.214844 20.65625 16.214844 L 19.386719 16.214844 L 19.386719 15.433594 L 20.65625 15.433594 C 20.90625 15.433594 21.109375 15.238281 21.109375 15 C 21.109375 14.757812 20.90625 14.5625 20.65625 14.5625 L 19.386719 14.5625 L 19.386719 13.78125 L 20.65625 13.78125 C 20.90625 13.78125 21.109375 13.589844 21.109375 13.347656 C 21.109375 13.109375 20.90625 12.910156 20.65625 12.910156 Z M 9.34375 12.910156 C 9.09375 12.910156 8.890625 13.105469 8.890625 13.347656 L 8.890625 16.652344 C 8.890625 16.894531 9.09375 17.089844 9.34375 17.089844 L 11.066406 17.089844 C 11.320312 17.089844 11.523438 16.894531 11.523438 16.652344 C 11.523438 16.414062 11.320312 16.21875 11.066406 16.21875 L 9.800781 16.21875 L 9.800781 13.347656 C 9.800781 13.109375 9.59375 12.910156 9.34375 12.910156 Z M 9.34375 12.910156 "/>
</g>
</svg>
