<svg width="350" height="71" viewBox="0 0 350 71" fill="none" xmlns="http://www.w3.org/2000/svg">
<g filter="url(#filter0_d)">
<rect x="2" width="344" height="63" rx="8" fill="#B8F0E8"/>
<rect x="3.5" y="1.5" width="341" height="60" rx="6.5" stroke="#A6E9E0" stroke-width="3"/>
</g>
<path d="M20.634 22.216C19.638 22.216 18.672 22.084 17.736 21.82C16.812 21.544 16.068 21.19 15.504 20.758L16.494 18.562C17.034 18.958 17.676 19.276 18.42 19.516C19.164 19.756 19.908 19.876 20.652 19.876C21.48 19.876 22.092 19.756 22.488 19.516C22.884 19.264 23.082 18.934 23.082 18.526C23.082 18.226 22.962 17.98 22.722 17.788C22.494 17.584 22.194 17.422 21.822 17.302C21.462 17.182 20.97 17.05 20.346 16.906C19.386 16.678 18.6 16.45 17.988 16.222C17.376 15.994 16.848 15.628 16.404 15.124C15.972 14.62 15.756 13.948 15.756 13.108C15.756 12.376 15.954 11.716 16.35 11.128C16.746 10.528 17.34 10.054 18.132 9.706C18.936 9.358 19.914 9.184 21.066 9.184C21.87 9.184 22.656 9.28 23.424 9.472C24.192 9.664 24.864 9.94 25.44 10.3L24.54 12.514C23.376 11.854 22.212 11.524 21.048 11.524C20.232 11.524 19.626 11.656 19.23 11.92C18.846 12.184 18.654 12.532 18.654 12.964C18.654 13.396 18.876 13.72 19.32 13.936C19.776 14.14 20.466 14.344 21.39 14.548C22.35 14.776 23.136 15.004 23.748 15.232C24.36 15.46 24.882 15.82 25.314 16.312C25.758 16.804 25.98 17.47 25.98 18.31C25.98 19.03 25.776 19.69 25.368 20.29C24.972 20.878 24.372 21.346 23.568 21.694C22.764 22.042 21.786 22.216 20.634 22.216ZM27.9725 9.4H33.6965C35.0645 9.4 36.2705 9.664 37.3145 10.192C38.3705 10.708 39.1865 11.44 39.7625 12.388C40.3505 13.336 40.6445 14.44 40.6445 15.7C40.6445 16.96 40.3505 18.064 39.7625 19.012C39.1865 19.96 38.3705 20.698 37.3145 21.226C36.2705 21.742 35.0645 22 33.6965 22H27.9725V9.4ZM33.5525 19.606C34.8125 19.606 35.8145 19.258 36.5585 18.562C37.3145 17.854 37.6925 16.9 37.6925 15.7C37.6925 14.5 37.3145 13.552 36.5585 12.856C35.8145 12.148 34.8125 11.794 33.5525 11.794H30.8885V19.606H33.5525ZM52.0813 22.216C51.0853 22.216 50.1193 22.084 49.1833 21.82C48.2593 21.544 47.5153 21.19 46.9513 20.758L47.9413 18.562C48.4813 18.958 49.1233 19.276 49.8673 19.516C50.6113 19.756 51.3553 19.876 52.0993 19.876C52.9273 19.876 53.5393 19.756 53.9353 19.516C54.3313 19.264 54.5293 18.934 54.5293 18.526C54.5293 18.226 54.4093 17.98 54.1693 17.788C53.9413 17.584 53.6413 17.422 53.2693 17.302C52.9093 17.182 52.4173 17.05 51.7933 16.906C50.8333 16.678 50.0473 16.45 49.4353 16.222C48.8233 15.994 48.2953 15.628 47.8513 15.124C47.4193 14.62 47.2033 13.948 47.2033 13.108C47.2033 12.376 47.4013 11.716 47.7973 11.128C48.1933 10.528 48.7873 10.054 49.5793 9.706C50.3833 9.358 51.3613 9.184 52.5133 9.184C53.3173 9.184 54.1033 9.28 54.8713 9.472C55.6393 9.664 56.3113 9.94 56.8873 10.3L55.9873 12.514C54.8233 11.854 53.6593 11.524 52.4953 11.524C51.6793 11.524 51.0733 11.656 50.6773 11.92C50.2933 12.184 50.1013 12.532 50.1013 12.964C50.1013 13.396 50.3233 13.72 50.7673 13.936C51.2233 14.14 51.9133 14.344 52.8373 14.548C53.7973 14.776 54.5833 15.004 55.1953 15.232C55.8073 15.46 56.3293 15.82 56.7613 16.312C57.2053 16.804 57.4273 17.47 57.4273 18.31C57.4273 19.03 57.2233 19.69 56.8153 20.29C56.4193 20.878 55.8193 21.346 55.0153 21.694C54.2113 22.042 53.2333 22.216 52.0813 22.216ZM68.9778 12.316V22H66.3138V20.848C65.9418 21.268 65.4978 21.592 64.9818 21.82C64.4658 22.036 63.9078 22.144 63.3078 22.144C62.0358 22.144 61.0278 21.778 60.2838 21.046C59.5398 20.314 59.1678 19.228 59.1678 17.788V12.316H61.9758V17.374C61.9758 18.934 62.6298 19.714 63.9378 19.714C64.6098 19.714 65.1498 19.498 65.5578 19.066C65.9658 18.622 66.1698 17.968 66.1698 17.104V12.316H68.9778ZM77.8252 21.532C77.5492 21.736 77.2072 21.892 76.7992 22C76.4032 22.096 75.9832 22.144 75.5392 22.144C74.3872 22.144 73.4932 21.85 72.8572 21.262C72.2332 20.674 71.9212 19.81 71.9212 18.67V14.692H70.4272V12.532H71.9212V10.174H74.7292V12.532H77.1412V14.692H74.7292V18.634C74.7292 19.042 74.8312 19.36 75.0352 19.588C75.2512 19.804 75.5512 19.912 75.9352 19.912C76.3792 19.912 76.7572 19.792 77.0692 19.552L77.8252 21.532ZM83.7106 22.144C82.6906 22.144 81.7726 21.934 80.9566 21.514C80.1526 21.082 79.5226 20.488 79.0666 19.732C78.6106 18.976 78.3826 18.118 78.3826 17.158C78.3826 16.198 78.6106 15.34 79.0666 14.584C79.5226 13.828 80.1526 13.24 80.9566 12.82C81.7726 12.388 82.6906 12.172 83.7106 12.172C84.7306 12.172 85.6426 12.388 86.4466 12.82C87.2506 13.24 87.8806 13.828 88.3366 14.584C88.7926 15.34 89.0206 16.198 89.0206 17.158C89.0206 18.118 88.7926 18.976 88.3366 19.732C87.8806 20.488 87.2506 21.082 86.4466 21.514C85.6426 21.934 84.7306 22.144 83.7106 22.144ZM83.7106 19.84C84.4306 19.84 85.0186 19.6 85.4746 19.12C85.9426 18.628 86.1766 17.974 86.1766 17.158C86.1766 16.342 85.9426 15.694 85.4746 15.214C85.0186 14.722 84.4306 14.476 83.7106 14.476C82.9906 14.476 82.3966 14.722 81.9286 15.214C81.4606 15.694 81.2266 16.342 81.2266 17.158C81.2266 17.974 81.4606 18.628 81.9286 19.12C82.3966 19.6 82.9906 19.84 83.7106 19.84ZM103.3 12.172C104.512 12.172 105.472 12.532 106.18 13.252C106.9 13.96 107.26 15.028 107.26 16.456V22H104.452V16.888C104.452 16.12 104.29 15.55 103.966 15.178C103.654 14.794 103.204 14.602 102.616 14.602C101.956 14.602 101.434 14.818 101.05 15.25C100.666 15.67 100.474 16.3 100.474 17.14V22H97.6656V16.888C97.6656 15.364 97.0536 14.602 95.8296 14.602C95.1816 14.602 94.6656 14.818 94.2816 15.25C93.8976 15.67 93.7056 16.3 93.7056 17.14V22H90.8976V12.316H93.5796V13.432C93.9396 13.024 94.3776 12.712 94.8936 12.496C95.4216 12.28 95.9976 12.172 96.6216 12.172C97.3056 12.172 97.9236 12.31 98.4756 12.586C99.0276 12.85 99.4716 13.24 99.8076 13.756C100.204 13.252 100.702 12.862 101.302 12.586C101.914 12.31 102.58 12.172 103.3 12.172ZM114.49 22.144C113.47 22.144 112.552 21.934 111.736 21.514C110.932 21.082 110.302 20.488 109.846 19.732C109.39 18.976 109.162 18.118 109.162 17.158C109.162 16.198 109.39 15.34 109.846 14.584C110.302 13.828 110.932 13.24 111.736 12.82C112.552 12.388 113.47 12.172 114.49 12.172C115.51 12.172 116.422 12.388 117.226 12.82C118.03 13.24 118.66 13.828 119.116 14.584C119.572 15.34 119.8 16.198 119.8 17.158C119.8 18.118 119.572 18.976 119.116 19.732C118.66 20.488 118.03 21.082 117.226 21.514C116.422 21.934 115.51 22.144 114.49 22.144ZM114.49 19.84C115.21 19.84 115.798 19.6 116.254 19.12C116.722 18.628 116.956 17.974 116.956 17.158C116.956 16.342 116.722 15.694 116.254 15.214C115.798 14.722 115.21 14.476 114.49 14.476C113.77 14.476 113.176 14.722 112.708 15.214C112.24 15.694 112.006 16.342 112.006 17.158C112.006 17.974 112.24 18.628 112.708 19.12C113.176 19.6 113.77 19.84 114.49 19.84ZM131.041 9.4V22H128.125V11.74H125.605V9.4H131.041ZM150.585 22L150.567 14.44L146.859 20.668H145.545L141.855 14.602V22H139.119V9.4H141.531L146.247 17.23L150.891 9.4H153.285L153.321 22H150.585ZM165.598 17.194C165.598 17.23 165.58 17.482 165.544 17.95H158.218C158.35 18.55 158.662 19.024 159.154 19.372C159.646 19.72 160.258 19.894 160.99 19.894C161.494 19.894 161.938 19.822 162.322 19.678C162.718 19.522 163.084 19.282 163.42 18.958L164.914 20.578C164.002 21.622 162.67 22.144 160.918 22.144C159.826 22.144 158.86 21.934 158.02 21.514C157.18 21.082 156.532 20.488 156.076 19.732C155.62 18.976 155.392 18.118 155.392 17.158C155.392 16.21 155.614 15.358 156.058 14.602C156.514 13.834 157.132 13.24 157.912 12.82C158.704 12.388 159.586 12.172 160.558 12.172C161.506 12.172 162.364 12.376 163.132 12.784C163.9 13.192 164.5 13.78 164.932 14.548C165.376 15.304 165.598 16.186 165.598 17.194ZM160.576 14.296C159.94 14.296 159.406 14.476 158.974 14.836C158.542 15.196 158.278 15.688 158.182 16.312H162.952C162.856 15.7 162.592 15.214 162.16 14.854C161.728 14.482 161.2 14.296 160.576 14.296ZM177.332 8.644V22H174.65V20.884C173.954 21.724 172.946 22.144 171.626 22.144C170.714 22.144 169.886 21.94 169.142 21.532C168.41 21.124 167.834 20.542 167.414 19.786C166.994 19.03 166.784 18.154 166.784 17.158C166.784 16.162 166.994 15.286 167.414 14.53C167.834 13.774 168.41 13.192 169.142 12.784C169.886 12.376 170.714 12.172 171.626 12.172C172.862 12.172 173.828 12.562 174.524 13.342V8.644H177.332ZM172.112 19.84C172.82 19.84 173.408 19.6 173.876 19.12C174.344 18.628 174.578 17.974 174.578 17.158C174.578 16.342 174.344 15.694 173.876 15.214C173.408 14.722 172.82 14.476 172.112 14.476C171.392 14.476 170.798 14.722 170.33 15.214C169.862 15.694 169.628 16.342 169.628 17.158C169.628 17.974 169.862 18.628 170.33 19.12C170.798 19.6 171.392 19.84 172.112 19.84ZM183.837 12.172C185.337 12.172 186.489 12.532 187.293 13.252C188.097 13.96 188.499 15.034 188.499 16.474V22H185.871V20.794C185.343 21.694 184.359 22.144 182.919 22.144C182.175 22.144 181.527 22.018 180.975 21.766C180.435 21.514 180.021 21.166 179.733 20.722C179.445 20.278 179.301 19.774 179.301 19.21C179.301 18.31 179.637 17.602 180.309 17.086C180.993 16.57 182.043 16.312 183.459 16.312H185.691C185.691 15.7 185.505 15.232 185.133 14.908C184.761 14.572 184.203 14.404 183.459 14.404C182.943 14.404 182.433 14.488 181.929 14.656C181.437 14.812 181.017 15.028 180.669 15.304L179.661 13.342C180.189 12.97 180.819 12.682 181.551 12.478C182.295 12.274 183.057 12.172 183.837 12.172ZM183.621 20.254C184.101 20.254 184.527 20.146 184.899 19.93C185.271 19.702 185.535 19.372 185.691 18.94V17.95H183.765C182.613 17.95 182.037 18.328 182.037 19.084C182.037 19.444 182.175 19.732 182.451 19.948C182.739 20.152 183.129 20.254 183.621 20.254ZM196.926 12.172C198.126 12.172 199.092 12.532 199.824 13.252C200.568 13.972 200.94 15.04 200.94 16.456V22H198.132V16.888C198.132 16.12 197.964 15.55 197.628 15.178C197.292 14.794 196.806 14.602 196.17 14.602C195.462 14.602 194.898 14.824 194.478 15.268C194.058 15.7 193.848 16.348 193.848 17.212V22H191.04V12.316H193.722V13.45C194.094 13.042 194.556 12.73 195.108 12.514C195.66 12.286 196.266 12.172 196.926 12.172ZM21.612 35.68V37H15.42V35.956L18.756 32.788C19.132 32.428 19.384 32.116 19.512 31.852C19.648 31.58 19.716 31.312 19.716 31.048C19.716 30.656 19.584 30.356 19.32 30.148C19.056 29.94 18.668 29.836 18.156 29.836C17.3 29.836 16.644 30.128 16.188 30.712L15.096 29.872C15.424 29.432 15.864 29.092 16.416 28.852C16.976 28.604 17.6 28.48 18.288 28.48C19.2 28.48 19.928 28.696 20.472 29.128C21.016 29.56 21.288 30.148 21.288 30.892C21.288 31.348 21.192 31.776 21 32.176C20.808 32.576 20.44 33.032 19.896 33.544L17.652 35.68H21.612ZM25.9812 37.12C25.3092 37.12 24.7092 36.952 24.1812 36.616C23.6532 36.272 23.2372 35.776 22.9332 35.128C22.6292 34.472 22.4772 33.696 22.4772 32.8C22.4772 31.904 22.6292 31.132 22.9332 30.484C23.2372 29.828 23.6532 29.332 24.1812 28.996C24.7092 28.652 25.3092 28.48 25.9812 28.48C26.6532 28.48 27.2532 28.652 27.7812 28.996C28.3172 29.332 28.7372 29.828 29.0412 30.484C29.3452 31.132 29.4972 31.904 29.4972 32.8C29.4972 33.696 29.3452 34.472 29.0412 35.128C28.7372 35.776 28.3172 36.272 27.7812 36.616C27.2532 36.952 26.6532 37.12 25.9812 37.12ZM25.9812 35.764C26.5812 35.764 27.0532 35.516 27.3972 35.02C27.7492 34.524 27.9252 33.784 27.9252 32.8C27.9252 31.816 27.7492 31.076 27.3972 30.58C27.0532 30.084 26.5812 29.836 25.9812 29.836C25.3892 29.836 24.9172 30.084 24.5652 30.58C24.2212 31.076 24.0492 31.816 24.0492 32.8C24.0492 33.784 24.2212 34.524 24.5652 35.02C24.9172 35.516 25.3892 35.764 25.9812 35.764ZM34.0554 37.12C33.3834 37.12 32.7834 36.952 32.2554 36.616C31.7274 36.272 31.3114 35.776 31.0074 35.128C30.7034 34.472 30.5514 33.696 30.5514 32.8C30.5514 31.904 30.7034 31.132 31.0074 30.484C31.3114 29.828 31.7274 29.332 32.2554 28.996C32.7834 28.652 33.3834 28.48 34.0554 28.48C34.7274 28.48 35.3274 28.652 35.8554 28.996C36.3914 29.332 36.8114 29.828 37.1154 30.484C37.4194 31.132 37.5714 31.904 37.5714 32.8C37.5714 33.696 37.4194 34.472 37.1154 35.128C36.8114 35.776 36.3914 36.272 35.8554 36.616C35.3274 36.952 34.7274 37.12 34.0554 37.12ZM34.0554 35.764C34.6554 35.764 35.1274 35.516 35.4714 35.02C35.8234 34.524 35.9994 33.784 35.9994 32.8C35.9994 31.816 35.8234 31.076 35.4714 30.58C35.1274 30.084 34.6554 29.836 34.0554 29.836C33.4634 29.836 32.9914 30.084 32.6394 30.58C32.2954 31.076 32.1234 31.816 32.1234 32.8C32.1234 33.784 32.2954 34.524 32.6394 35.02C32.9914 35.516 33.4634 35.764 34.0554 35.764ZM44.9031 28.6V29.644L41.6391 37H39.9711L43.1271 29.92H39.8271V31.348H38.3751V28.6H44.9031ZM49.3163 33.04H52.6163V34.288H49.3163V33.04ZM63.2018 35.68V37H57.0098V35.956L60.3458 32.788C60.7218 32.428 60.9738 32.116 61.1018 31.852C61.2378 31.58 61.3058 31.312 61.3058 31.048C61.3058 30.656 61.1738 30.356 60.9098 30.148C60.6458 29.94 60.2578 29.836 59.7458 29.836C58.8898 29.836 58.2338 30.128 57.7778 30.712L56.6858 29.872C57.0138 29.432 57.4538 29.092 58.0058 28.852C58.5658 28.604 59.1898 28.48 59.8778 28.48C60.7898 28.48 61.5178 28.696 62.0618 29.128C62.6058 29.56 62.8778 30.148 62.8778 30.892C62.8778 31.348 62.7818 31.776 62.5898 32.176C62.3978 32.576 62.0298 33.032 61.4858 33.544L59.2418 35.68H63.2018ZM67.5711 37.12C66.8991 37.12 66.2991 36.952 65.7711 36.616C65.2431 36.272 64.8271 35.776 64.5231 35.128C64.2191 34.472 64.0671 33.696 64.0671 32.8C64.0671 31.904 64.2191 31.132 64.5231 30.484C64.8271 29.828 65.2431 29.332 65.7711 28.996C66.2991 28.652 66.8991 28.48 67.5711 28.48C68.2431 28.48 68.8431 28.652 69.3711 28.996C69.9071 29.332 70.3271 29.828 70.6311 30.484C70.9351 31.132 71.0871 31.904 71.0871 32.8C71.0871 33.696 70.9351 34.472 70.6311 35.128C70.3271 35.776 69.9071 36.272 69.3711 36.616C68.8431 36.952 68.2431 37.12 67.5711 37.12ZM67.5711 35.764C68.1711 35.764 68.6431 35.516 68.9871 35.02C69.3391 34.524 69.5151 33.784 69.5151 32.8C69.5151 31.816 69.3391 31.076 68.9871 30.58C68.6431 30.084 68.1711 29.836 67.5711 29.836C66.9791 29.836 66.5071 30.084 66.1551 30.58C65.8111 31.076 65.6391 31.816 65.6391 32.8C65.6391 33.784 65.8111 34.524 66.1551 35.02C66.5071 35.516 66.9791 35.764 67.5711 35.764ZM74.9867 28.6V37H73.4267V29.908H71.6507V28.6H74.9867ZM80.229 32.068C81.005 32.164 81.597 32.428 82.005 32.86C82.413 33.292 82.617 33.832 82.617 34.48C82.617 34.968 82.493 35.412 82.245 35.812C81.997 36.212 81.621 36.532 81.117 36.772C80.621 37.004 80.013 37.12 79.293 37.12C78.693 37.12 78.113 37.036 77.553 36.868C77.001 36.692 76.529 36.452 76.137 36.148L76.809 34.936C77.113 35.192 77.481 35.396 77.913 35.548C78.353 35.692 78.805 35.764 79.269 35.764C79.821 35.764 80.253 35.652 80.565 35.428C80.885 35.196 81.045 34.884 81.045 34.492C81.045 34.1 80.893 33.796 80.589 33.58C80.293 33.356 79.837 33.244 79.221 33.244H78.453V32.176L80.361 29.908H76.545V28.6H82.269V29.644L80.229 32.068Z" fill="#5BABA1"/>
<defs>
<filter id="filter0_d" x="-2" y="0" width="352" height="71" filterUnits="userSpaceOnUse" color-interpolation-filters="sRGB">
<feFlood flood-opacity="0" result="BackgroundImageFix"/>
<feColorMatrix in="SourceAlpha" type="matrix" values="0 0 0 0 0 0 0 0 0 0 0 0 0 0 0 0 0 0 127 0"/>
<feOffset dy="4"/>
<feGaussianBlur stdDeviation="2"/>
<feColorMatrix type="matrix" values="0 0 0 0 0 0 0 0 0 0 0 0 0 0 0 0 0 0 0.25 0"/>
<feBlend mode="normal" in2="BackgroundImageFix" result="effect1_dropShadow"/>
<feBlend mode="normal" in="SourceGraphic" in2="effect1_dropShadow" result="shape"/>
</filter>
</defs>
</svg>
